<svg viewBox="0 0 200 110" xmlns="http://www.w3.org/2000/svg" xmlns:svg="http://www.w3.org/2000/svg">
 <defs>
  <style>.cls-1,.cls-4{fill:#fff;}.cls-1,.cls-2,.cls-3,.cls-4,.cls-5{stroke:#007ac2;}.cls-1{stroke-miterlimit:10;}.cls-2{fill:#c8e2f2;}.cls-2,.cls-3,.cls-4,.cls-5{stroke-linejoin:round;}.cls-3,.cls-6{fill:#dbeefa;}.cls-5{fill:none;}</style>
 </defs>
 <g>
  <title>Layer 1</title>
  <rect class="cls-1" x="66.90113" y="-2.74408" width="94" height="117.40625" transform="rotate(90 113.90113067626955,55.95904541015626) " id="svg_1" fill="black"/>
  <path class="cls-2" d="m30.8554,66.27651a12.36,12.36 0 0 0 -1.4,-0.08c-2.17,0 -5.87,0.56 -5.87,4.32l0,12.8l5.95,5.85l5.95,-5.85l0,-12.8c0,-3.05 -2.56,-4 -4.63,-4.24zm-1.27,9.78a2.87,2.87 0 1 1 2.87,-2.89a2.87,2.87 0 0 1 -2.87,2.89z" id="svg_2" fill="black"/>
  <path class="cls-3" d="m37.19117,23.62053a3.92,3.92 0 1 0 -3.89,-4a3.92,3.92 0 0 0 3.89,4zm6.37,4.25a3.17,3.17 0 0 0 -2.67,-3a30,30 0 0 0 -7.41,0a3.17,3.17 0 0 0 -2.67,3l-0.66,8.67a1.6,1.6 0 0 0 1.28,1.8l0,2.29c0,0.71 0.68,0.65 1.38,0.65l8.74,0c0.71,0 0.88,0.06 0.88,-0.65l0,-2.29a1.8,1.8 0 0 0 1.51,-1.8l-0.38,-8.67z" id="svg_3" fill="black"/>
  <circle class="cls-2" cx="140.75685" cy="77.5753" r="17.61" id="svg_6" fill="black"/>
  <path class="cls-3" d="m146.54685,60.9653l-5.8,16.61l17,4.52a17.51,17.51 0 0 0 -11.21,-21.13l0.01,0z" id="svg_7" fill="black"/>
  <path class="cls-4" d="m157.75685,82.0953l-17,-4.52l5.1,16.85a17.62,17.62 0 0 0 11.9,-12.33z" id="svg_8"/>
  <rect class="cls-6" x="67.65614" y="62.52734" width="42.23137" height="5" id="svg_12" fill="black"/>
  <rect class="cls-6" x="67.65614" y="71.52734" width="42.34941" height="5" id="svg_13" fill="black"/>
  <rect class="cls-6" x="67.65614" y="80.52734" width="42.36547" height="5" id="svg_14" fill="black"/>
  <rect class="cls-6" x="67.65614" y="89.52734" width="42.42449" height="5" id="svg_15" fill="black"/>
  <polyline class="cls-5" points="66.59375,62.52734375 66.59375,95.02734375 110.28517150878906,95.02734375 " id="svg_16"/>
  <polyline class="cls-5" points="67.65619659423828,94.52734375 74.78115844726562,79.44734191894531 79.53114318847656,85.24734497070312 85.07266235351562,70.16734313964844 99.3226089477539,72.48734283447266 109.61416625976562,65.52734375 " id="svg_17"/>
  <polyline class="cls-5" points="118.29686737060547,16.90625 118.29686737060547,49.40625 164.85569763183594,49.40625 " id="svg_25"/>
  <rect class="cls-3" x="113.62297" y="33.66006" width="23.48425" height="7.95302" fill="black" id="svg_26" transform="rotate(-90 125.36509704589845,37.63656997680663) "/>
  <rect class="cls-3" x="129.32904" y="38.31273" width="13.99206" height="7.95302" fill="black" transform="rotate(-90 136.32507324218753,42.289234161376946) " id="svg_27"/>
  <rect class="cls-3" x="133.77109" y="31.78686" width="27.04382" height="7.95302" fill="black" transform="rotate(-90 147.29299926757815,35.76336669921874) " id="svg_28"/>
  <rect class="cls-3" x="148.56185" y="35.45025" width="19.45007" height="7.95302" fill="black" transform="rotate(-90 158.28689575195315,39.42675399780273) " id="svg_29"/>
  <rect class="cls-2" x="75.12416" y="12.48465" width="25.65625" height="42.73438" transform="rotate(90 87.95228576660158,33.85183715820313) " fill="black" id="svg_30"/>
  <line class="cls-2" x1="71.7765" y1="29.73856" x2="95.26869" y2="29.73856" id="svg_31"/>
  <line class="cls-2" x1="72.09291" y1="37.0159" x2="102.46693" y2="37.0159" id="svg_32"/>
  <line stroke="white" transform="rotate(90 55.444488525390625,32.36056137084962) " id="svg_9" x1="51.68765" y1="32.36056" x2="59.20132" y2="32.36056"/>
  <line stroke="white" id="svg_10" transform="rotate(90 54.637203216552734,32.35748291015626) " x1="50.88037" y1="32.35748" x2="58.39404" y2="32.35748"/>
  <line id="svg_11" class="cls-2" x1="46.44141" y1="32.22461" x2="66.45313" y2="32.22461"/>
  <line id="svg_19" stroke="white" transform="rotate(90 55.38857650756835,76.12752532958986) " x1="51.63174" y1="76.12753" x2="59.14541" y2="76.12753"/>
  <line id="svg_20" stroke="white" transform="rotate(90 54.84616470336913,76.13162994384767) " x1="51.08933" y1="76.13163" x2="58.603" y2="76.13163"/>
  <line id="svg_21" class="cls-2" x1="39.21809" y1="75.99072" x2="66.43794" y2="75.99072"/>
 </g>
</svg>
