<svg xmlns="http://www.w3.org/2000/svg" id="illustration" viewBox="0 0 200 110">
  <defs>
    <style>.cls-1,.cls-5{fill:#fff;}.cls-1,.cls-2,.cls-3,.cls-4,.cls-9{stroke:#007ac2;stroke-miterlimit:10;}.cls-2,.cls-8{fill:#f9f9fa;}.cls-3,.cls-6{fill:#dbeefa;}.cls-4,.cls-7{fill:#c8e2f2;}.cls-9{fill:none;}</style>
  </defs>
  <rect class="cls-1" x="8.5" y="17.5" width="23" height="5"/>
  <rect class="cls-2" x="31.5" y="17.5" width="24" height="5"/>
  <rect class="cls-3" x="55.5" y="17.5" width="23" height="5"/>
  <rect class="cls-4" x="78.5" y="17.5" width="23" height="5"/>
  <path class="cls-5" d="M46.38,70.18c0-.93-1-1.74-1-2.36,0-.89,2.57-2.09,5-2.09,6,0,6.11,5.21,10.41,5.21A3.44,3.44,0,0,0,63,70.12c7.71-5.5,22-7.05,22-7.05,0-.39-.47-1-.47-1.57,0-.7,3.32-.7,3.89-.7C91,60.8,89.85,64,92.28,64a1.89,1.89,0,0,0,.7-.27c1.36,1.9,3.19,3.71,3.19,3.8,0,.7-1.67.24-1.67,1,0,.13,0,.26,0,.38a5.14,5.14,0,0,1-.23,1c-.61,1.41-3.53,1.16-3.53,2.32,0,.09,0,.19,0,.28v.06c-.25,1.73-8.28.71-8.28,4.08,0,1.57.8,2.89.8,4.12a4.56,4.56,0,0,1-.12,1.15h0a.94.94,0,0,0-.3-.05S81,83.95,65.59,84.94c-5.08.48-6.31,7.6-8.4,7.6s-3.64-4.48-6.26-4.48c-1,0-2,1.26-3.19,1.26A1.19,1.19,0,0,1,46.54,88c0-.52.14-1.14.14-1.7,0-.75-.48-1.17-.79-1.17-.54,0-1.13-.13-1.61-.13-1.31,0-2.35,3.36-4.69,4.11a3,3,0,0,1-.46-1.57,6,6,0,0,0,1.35-3.86c0-1-.14-2-.14-3,0-3.22,2.11-2.29,2.11-4.48A3.11,3.11,0,0,0,42,74.53a.11.11,0,0,1,0-.09q.09-.36.16-.72a1.59,1.59,0,0,0,.85.19C44.54,73.91,46.38,71.07,46.38,70.18Z"/>
  <path class="cls-6" d="M179.76,60.76c-2.11,0-3.41,1.27-3.41,2.16a1.79,1.79,0,0,0,.06.5l-1.32.32c-.5-1.66-1.49-3-1.49-4.27,0-.67,4.2-6.58,5.17-6.58,3.17,0-1.86,3.4,6.33-2.38.68-.55,1.12-1.84,1.66-1.84.32,0,1.26.68,1.77.68a23.85,23.85,0,0,1,1.9-2.61A11.18,11.18,0,0,1,192.07,52c0,2.69-1.65,1.51-1.65,4.11,0,1.54.88,3,.88,4.58,0,1.84-2.36,2-4.21,2C183.64,62.71,183.28,60.76,179.76,60.76Z"/>
  <path class="cls-6" d="M120.92,100.88c-12.44-2.49-20.51-4.22-25.74-5.53.46-2.4,2.08-3.74,3.43-3.74.51,0,1,.1,1.48.1s1.07-.17,1.07-.63c0-1.45-2.86-2.19-3.22-3.45a16.86,16.86,0,0,0-3.14-6.35,2.75,2.75,0,0,1,1.86-.64c2.41,0,4,2.3,6.91,2.3,2.26,0,4.15-1.16,6.63-1.16,3.2,0,7.35,2.79,9.48,4.38.84.63,1.38,1.06,1.4,1.06,2.29,0,2.92-4.49,6.09-4.49,2.5,0,3.77,1.68,7.61,1.68a25.23,25.23,0,0,0,6.37-1.21c4.24,0,5.15,7.89,5.17,12.17h0c-5.68,1.73-3.37,8.24-11.47,8.24a8.93,8.93,0,0,1-4.73-1.41C127.48,100.5,124.1,101.44,120.92,100.88Z"/><path class="cls-6" d="M174.56,84.75c-2.26,1.13-3.37,3.56-5.82,4.88a4.74,4.74,0,0,0-.63.41,6.84,6.84,0,0,1-.13-1.32,10.29,10.29,0,0,0,2.34-6.94A19.3,19.3,0,0,0,167.74,73c0-1.76,1.84-2.28,3.71-3s3.93-1.69,3.93-4.47a6.12,6.12,0,0,0-.28-1.81l1.32-.32c.59,2.39,5.34,2.57,5.34,5.16,0,2.9-6.13,3.43-6.13,6.36,0,.54,2.68,4.21,2.68,6.44C178.3,83.86,176.86,83.76,174.56,84.75Z"/>
  <path class="cls-7" d="M178.9,42.61A7.06,7.06,0,0,0,180.18,46c0,.47-1.43.62-1.91.62s-1.19-.08-1.78-.08a17.91,17.91,0,0,0-2.54.53,3,3,0,0,1-2.7-2.5,1.16,1.16,0,0,1,1-1.2c.14,0,.31.06.46.06.8,0,4.16-2.64,4.54-2.64s1.47,1.08,1.71,1.43A2.83,2.83,0,0,0,178.9,42.61Z"/>
  <path class="cls-5" d="M185.25,38c0,1.83,3.16,5.09,5.18,8.73a23.85,23.85,0,0,0-1.9,2.61c-.51,0-1.45-.68-1.77-.68-.54,0-1,1.3-1.66,1.84-8.19,5.78-3.16,2.38-6.33,2.38-1,0-5.17,5.91-5.17,6.58,0,1.31,1,2.6,1.49,4.27a6.12,6.12,0,0,1,.28,1.81c0,2.77-2,3.72-3.93,4.47-.42-1.23-1-2.67-2.15-2.67-.77,0-1.85,1-2.71,1-.08,0-1.16-1.18-2.47-2.48-.16-3-1.74-2-2.17-2.87-.52-1-.52-2.38-1.63-2.75-2.34-.78-4.57-2.76-6.5-2.76-2.61,0-4.18,2.78-8.82,2.78-2.38,0-2.94-.72-4.65-.87,0-.35,0-.69,0-1s0-.4,0-.47c0-.69.23-1.45.23-2.1,0-3.44-6.56-1.9-6.56-8.13,0-1.62.42-3.78,2.15-3.78S137.62,46,139.15,46c3.45,0,5.22-2.11,5.22-4.65a12.09,12.09,0,0,0-1.76-5.23c0-.36.19-.8.19-1.2,0-.63-.55-.89-1.14-1.13A20.18,20.18,0,0,1,137.9,32c.17-.14.35-.38.46-.49.7-5.62,6.08-3.73,6.08-8.28,0-.4,0-.81,0-1.23,0-2,.55-3.48,2.72-3.48,3.62,0,11.14,4.75,16.91,5.67,2.13.27,1.7,3.75,7.05,3.75,3.19,0,6.33-1.47,9.45-1.47,4,0,8,3.31,8,5.66C188.55,34,185.25,35.64,185.25,38Zm-5.07,8a7.06,7.06,0,0,1-1.27-3.39,2.83,2.83,0,0,1,0-.38c-.24-.35-1.34-1.43-1.71-1.43s-3.74,2.64-4.54,2.64c-.14,0-.31-.06-.46-.06a1.16,1.16,0,0,0-1,1.2,3,3,0,0,0,2.7,2.5,17.91,17.91,0,0,1,2.54-.53c.59,0,1.19.08,1.78.08S180.18,46.46,180.18,46Z"/>
  <path class="cls-7" d="M168.11,90a4.2,4.2,0,0,0-1.41,3.45c0,2.69,1,2.78-.54,2.78-.91,0-2.38-2.23-3.1-2.23-2.68,0-6.2,3.5-7.1,3.5-1.36,0-1.78-1.76-3-2.1a11.24,11.24,0,0,0-3.43-.5,11,11,0,0,0-3.25.42h0c0-4.28-.93-12.17-5.17-12.17a25.23,25.23,0,0,1-6.37,1.21c-3.84,0-5.11-1.68-7.61-1.68-3.17,0-3.79,4.49-6.09,4.49,0,0-.56-.44-1.4-1.06a6.88,6.88,0,0,0,1.74-4,5.5,5.5,0,0,0-.07-.83.44.44,0,0,1,0-.11c0-1,1.75-1,1.75-1.43,0-1-1.64-1.79-2.26-2.6S121,75,118.63,75c-1.06,0-2.21.45-3,.45-1.66,0-.68-3.94-.37-7.22a4.82,4.82,0,0,0,2,.39,1.53,1.53,0,0,0,1.61-1.32c0-1.23-1.56-2.42-1.56-3.87,0-2.39,2.19-3.11,4.44-3.11,2.47,0,2.87.29,2.87,1.18,0,.51,0,1,0,1.5,0,.94.17,1.2,1.2,1.2,1.31,0,2.6-.91,3.62-.91a13.75,13.75,0,0,0,1.45.21c3.16,0,4-4.08,8.88-4.08l.65,0c1.72.15,2.27.87,4.65.87,4.64,0,6.21-2.78,8.82-2.78,1.92,0,4.15,2,6.5,2.76,1.11.37,1.11,1.71,1.63,2.75.43.85,2-.16,2.17,2.87,1.31,1.3,2.39,2.48,2.47,2.48.86,0,1.94-1,2.71-1,1.1,0,1.73,1.44,2.15,2.67-1.87.72-3.71,1.23-3.71,3a19.3,19.3,0,0,1,2.59,8.77A10.29,10.29,0,0,1,168,88.73,6.84,6.84,0,0,0,168.11,90Z"/>
  <path class="cls-6" d="M42,74.53a3.11,3.11,0,0,1,.49,1.66c0,2.19-2.11,1.26-2.11,4.48,0,1,.14,2,.14,3a6,6,0,0,1-1.35,3.86,3,3,0,0,0,.46,1.57,3,3,0,0,1-.95.15,2.73,2.73,0,0,1-2.51-1.14c-2.33-4.92-8.66-3.82-8.66-11.1,0-3.11,1.06-5.4,1.06-6.63,0-.61-.08-1.28-.08-1.77s.38-1.32.94-1.32c1.87-.27,3.25-1.65,3.94-1.65a1.88,1.88,0,0,1,.75.14c2.17,1.81,5.23.19,5.23,5.39,0,.22.25.27.54.27A5.2,5.2,0,0,0,41.44,71c.3,0,.38.67.38,1s0,.56,0,.82a1,1,0,0,0,.38.9q-.07.36-.16.72A.11.11,0,0,0,42,74.53Z"/>
  <path class="cls-5" d="M83.32,86c0-.51.9-1.22.9-2.73a1.23,1.23,0,0,0-.29-.79,6.2,6.2,0,0,1,3.24-1.16s2.42-2,4.06-2a4.88,4.88,0,0,1,3.55,2,16.86,16.86,0,0,1,3.14,6.35c.36,1.26,3.22,2,3.22,3.45,0,.46-.62.63-1.07.63s-1-.1-1.48-.1c-1.35,0-3,1.34-3.43,3.74-16.21-4-5-3.82-11.59-8.53A1.27,1.27,0,0,1,83.32,86Z"/>
  <path class="cls-6" d="M96.89,49c0-4.19,6.69-4.75,10.71-6.22,4.75-1.9,3.09-10.36,5.71-10.36,1,0,2.46.76,3.63.76,3.62,0,.89-6.36,4.89-6.36a.94.94,0,0,1,1,.59,7.64,7.64,0,0,0,7.46,5.26c2,0,3.55-1.09,5.34-1.09a4.11,4.11,0,0,1,2,.52.11.11,0,0,0,.09,0,.35.35,0,0,0,.21-.11,20.18,20.18,0,0,0,3.75,1.82c.58.23,1.14.5,1.14,1.13,0,.4-.19.84-.19,1.2a12.09,12.09,0,0,1,1.76,5.23c0,2.54-1.76,4.65-5.22,4.65-1.53,0-1.24-2.07-2.94-2.07s-2.15,2.16-2.15,3.78c0,6.23,6.56,4.69,6.56,8.13,0,.65-.23,1.41-.23,2.1,0,.06,0,.26,0,.47s0,.66,0,1l-.65,0c-4.91,0-5.72,4.08-8.88,4.08a13.75,13.75,0,0,1-1.45-.21c-1,0-2.31.91-3.62.91-1,0-1.2-.26-1.2-1.2,0-.5,0-1,0-1.5,0-.89-.4-1.18-2.87-1.18-2.25,0-4.44.72-4.44,3.11,0,1.46,1.56,2.65,1.56,3.87a1.53,1.53,0,0,1-1.61,1.32,4.82,4.82,0,0,1-2-.39c-1.71-.77-2.49-2.59-2.49-4.68A11.27,11.27,0,0,1,114,59.22c0-1.54-5.5-.8-5.5-3.5,0-1.45,1.27-1,1.27-2.87,0-.6-.25-1-.84-1s-1.28.5-1.91.5a1,1,0,0,1-.41-.08c-.89-.38-.4-1.55-3-1.55A6.13,6.13,0,0,0,99,53C97.88,51.73,96.89,50.5,96.89,49Z"/>
  <path class="cls-8" d="M83.16,81.94a4.56,4.56,0,0,0,.12-1.15c0-1.23-.8-2.55-.8-4.12,0-3.37,8-2.35,8.28-4.08v-.06c0-.09,0-.19,0-.28,0-1.15,2.93-.9,3.53-2.32a5.14,5.14,0,0,0,.23-1c0-.13,0-.25,0-.38,0-.73,1.67-.28,1.67-1,0-.09-1.83-1.91-3.19-3.8,1.65-.89,5-3.54,5,0,0,.3,0,.61,0,.9a3.77,3.77,0,0,0,3.53,3.36c2,0,2.3-2,2.3-4.07,0-4.11-1.9-1.63-2.23-2.94a.11.11,0,0,1,0-.09,3,3,0,0,0,.82-2.26c0-2.34-1.82-4-3.36-5.63a6.13,6.13,0,0,1,4.5-2.19c2.63,0,2.14,1.17,3,1.55a1,1,0,0,0,.41.08c.64,0,1.28-.5,1.91-.5s.84.36.84,1c0,1.91-1.27,1.42-1.27,2.87,0,2.7,5.5,2,5.5,3.5a11.27,11.27,0,0,0-1.19,4.31c0,2.09.78,3.91,2.49,4.68-.31,3.28-1.29,7.22.37,7.22.8,0,1.94-.45,3-.45,2.4,0,1.47,1.26,2.21,2.16s2.26,1.61,2.26,2.6c0,.39-1.75.43-1.75,1.43a.44.44,0,0,0,0,.11,5.5,5.5,0,0,1,.07.83,6.88,6.88,0,0,1-1.74,4c-2.13-1.58-6.27-4.38-9.48-4.38-2.48,0-4.37,1.16-6.63,1.16-2.92,0-4.5-2.3-6.91-2.3a2.75,2.75,0,0,0-1.86.64,4.88,4.88,0,0,0-3.55-2c-1.65,0-4.05,2-4.06,2a6.2,6.2,0,0,0-3.24,1.16,1.62,1.62,0,0,0-.78-.53Z"/>
  <path class="cls-9" d="M93,63.72a1.89,1.89,0,0,1-.7.27C89.85,64,91,60.8,88.4,60.8c-.57,0-3.89,0-3.89.7,0,.53.47,1.18.47,1.57,0,0-14.31,1.55-22,7.05a3.44,3.44,0,0,1-2.17.81c-4.3,0-4.45-5.21-10.41-5.21-2.4,0-5,1.2-5,2.09,0,.63,1,1.43,1,2.36S44.54,73.91,43,73.91a1.59,1.59,0,0,1-.85-.19,1,1,0,0,1-.38-.9c0-.26,0-.55,0-.82s-.07-1-.38-1a5.2,5.2,0,0,1-1.59.46c-.29,0-.54,0-.54-.27,0-5.2-3.06-3.58-5.23-5.39a1.88,1.88,0,0,0-.75-.14c-.69,0-2.07,1.38-3.94,1.65-.56,0-.94.75-.94,1.32s.08,1.16.08,1.77c0,1.23-1.06,3.53-1.06,6.63,0,7.28,6.34,6.17,8.66,11.1a2.73,2.73,0,0,0,2.51,1.14,3,3,0,0,0,.95-.15C41.93,88.36,43,85,44.28,85c.48,0,1.07.13,1.61.13.3,0,.79.42.79,1.17,0,.56-.14,1.18-.14,1.7a1.19,1.19,0,0,0,1.2,1.32c1.15,0,2.23-1.26,3.19-1.26,2.61,0,4.3,4.48,6.26,4.48s3.32-7.11,8.4-7.6c15.4-1,17.28-3.05,17.28-3.05a.94.94,0,0,1,.3.05,1.62,1.62,0,0,1,.78.53,1.23,1.23,0,0,1,.29.79c0,1.51-.9,2.22-.9,2.73a1.27,1.27,0,0,0,.27.83c6.6,4.71-4.62,4.5,11.59,8.53,5.23,1.31,13.3,3,25.74,5.53,3.19.56,6.56-.38,9.19,1.32a8.93,8.93,0,0,0,4.73,1.41c8.1,0,5.79-6.51,11.47-8.24a11,11,0,0,1,3.25-.42,11.24,11.24,0,0,1,3.43.5c1.2.34,1.62,2.1,3,2.1.89,0,4.42-3.5,7.1-3.5.72,0,2.18,2.23,3.1,2.23,1.52,0,.54-.09.54-2.78A4.2,4.2,0,0,1,168.11,90a4.74,4.74,0,0,1,.63-.41c2.44-1.32,3.56-3.75,5.82-4.88s3.75-.89,3.75-3.36c0-2.23-2.68-5.91-2.68-6.44,0-2.94,6.13-3.46,6.13-6.36,0-2.6-4.75-2.77-5.34-5.16a1.79,1.79,0,0,1-.06-.5c0-.89,1.3-2.16,3.41-2.16,3.52,0,3.87,2,7.33,2,1.84,0,4.21-.19,4.21-2,0-1.56-.88-3-.88-4.58,0-2.6,1.65-1.41,1.65-4.11a11.18,11.18,0,0,0-1.64-5.25c-2-3.64-5.18-6.91-5.18-8.73,0-2.37,3.3-4,3.3-5.89,0-2.35-4-5.66-8-5.66-3.12,0-6.26,1.47-9.45,1.47-5.35,0-4.92-3.48-7.05-3.75-5.77-.92-13.3-5.67-16.91-5.67-2.17,0-2.72,1.49-2.72,3.48,0,.42,0,.83,0,1.23,0,4.55-5.38,2.66-6.08,8.28-.11.11-.29.35-.46.49a.35.35,0,0,1-.21.11.11.11,0,0,1-.09,0,4.11,4.11,0,0,0-2-.52c-1.79,0-3.39,1.09-5.34,1.09a7.64,7.64,0,0,1-7.46-5.26.94.94,0,0,0-1-.59c-4,0-1.26,6.36-4.89,6.36-1.17,0-2.63-.76-3.63-.76-2.62,0-1,8.47-5.71,10.36-4,1.47-10.71,2-10.71,6.22,0,1.54,1,2.77,2.13,4,1.55,1.66,3.36,3.29,3.36,5.63a3,3,0,0,1-.82,2.26.11.11,0,0,0,0,.09c.33,1.32,2.23-1.16,2.23,2.94,0,2.08-.29,4.07-2.3,4.07A3.77,3.77,0,0,1,98,64.59c0-.3,0-.6,0-.9C98,60.17,94.63,62.82,93,63.72Z"/>
  <path class="cls-9" d="M39.59,89.11a3,3,0,0,1-.46-1.57,6,6,0,0,0,1.35-3.86c0-1-.14-2-.14-3,0-3.22,2.11-2.29,2.11-4.48A3.11,3.11,0,0,0,42,74.53a.11.11,0,0,1,0-.09q.09-.36.16-.72"/>
  <path class="cls-9" d="M95.18,95.36h0c.46-2.4,2.08-3.74,3.43-3.74.51,0,1,.1,1.48.1s1.07-.17,1.07-.63c0-1.45-2.86-2.19-3.22-3.45a16.86,16.86,0,0,0-3.14-6.35,4.88,4.88,0,0,0-3.55-2c-1.65,0-4.05,2-4.06,2a6.2,6.2,0,0,0-3.24,1.16"/>
  <path class="cls-9" d="M83.16,81.94a4.56,4.56,0,0,0,.12-1.15c0-1.23-.8-2.55-.8-4.12,0-3.37,8-2.35,8.28-4.08v-.06c0-.09,0-.19,0-.28,0-1.15,2.93-.9,3.53-2.32a5.14,5.14,0,0,0,.23-1c0-.13,0-.25,0-.38,0-.73,1.67-.28,1.67-1,0-.09-1.83-1.91-3.19-3.8"/>
  <path class="cls-9" d="M137.9,32a20.18,20.18,0,0,0,3.75,1.82c.58.23,1.14.5,1.14,1.13,0,.4-.19.84-.19,1.2a12.09,12.09,0,0,1,1.76,5.23c0,2.54-1.76,4.65-5.22,4.65-1.53,0-1.24-2.07-2.94-2.07s-2.15,2.16-2.15,3.78c0,6.23,6.56,4.69,6.56,8.13,0,.65-.23,1.41-.23,2.1,0,.06,0,.26,0,.47s0,.66,0,1"/>
  <path class="cls-9" d="M171.45,70c-.42-1.23-1-2.67-2.15-2.67-.77,0-1.85,1-2.71,1-.08,0-1.16-1.18-2.47-2.48-.16-3-1.74-2-2.17-2.87-.52-1-.52-2.38-1.63-2.75-2.34-.78-4.57-2.76-6.5-2.76-2.61,0-4.18,2.78-8.82,2.78-2.38,0-2.94-.72-4.65-.87l-.65,0c-4.91,0-5.72,4.08-8.88,4.08a13.75,13.75,0,0,1-1.45-.21c-1,0-2.31.91-3.62.91-1,0-1.2-.26-1.2-1.2,0-.5,0-1,0-1.5,0-.89-.4-1.18-2.87-1.18-2.25,0-4.44.72-4.44,3.11,0,1.46,1.56,2.65,1.56,3.87a1.53,1.53,0,0,1-1.61,1.32,4.82,4.82,0,0,1-2-.39c-1.71-.77-2.49-2.59-2.49-4.68A11.27,11.27,0,0,1,114,59.22c0-1.54-5.5-.8-5.5-3.5,0-1.45,1.27-1,1.27-2.87,0-.6-.25-1-.84-1s-1.28.5-1.91.5a1,1,0,0,1-.41-.08c-.89-.38-.4-1.55-3-1.55A6.13,6.13,0,0,0,99,53"/>
  <path class="cls-9" d="M190.43,46.74a23.85,23.85,0,0,0-1.9,2.61c-.51,0-1.45-.68-1.77-.68-.54,0-1,1.3-1.66,1.84-8.19,5.78-3.16,2.38-6.33,2.38-1,0-5.17,5.91-5.17,6.58,0,1.31,1,2.6,1.49,4.27a6.12,6.12,0,0,1,.28,1.81c0,2.77-2,3.72-3.93,4.47s-3.71,1.23-3.71,3a19.3,19.3,0,0,1,2.59,8.77A10.29,10.29,0,0,1,168,88.73a6.84,6.84,0,0,0,.13,1.32"/>
  <path class="cls-9" d="M146.31,95.36c0-4.28-.93-12.17-5.17-12.17a25.23,25.23,0,0,1-6.37,1.21c-3.84,0-5.11-1.68-7.61-1.68-3.17,0-3.79,4.49-6.09,4.49,0,0-.56-.44-1.4-1.06-2.13-1.58-6.27-4.38-9.48-4.38-2.48,0-4.37,1.16-6.63,1.16-2.92,0-4.5-2.3-6.91-2.3a2.75,2.75,0,0,0-1.86.64"/>
  <path class="cls-9" d="M119.67,86.14a6.88,6.88,0,0,0,1.74-4,5.5,5.5,0,0,0-.07-.83.44.44,0,0,1,0-.11c0-1,1.75-1,1.75-1.43,0-1-1.64-1.79-2.26-2.6S121,75,118.63,75c-1.06,0-2.21.45-3,.45-1.66,0-.68-3.94-.37-7.22h0"/>
  <path class="cls-9" d="M178.92,42.22c-.24-.35-1.34-1.43-1.71-1.43s-3.74,2.64-4.54,2.64c-.14,0-.31-.06-.46-.06a1.16,1.16,0,0,0-1,1.2,3,3,0,0,0,2.7,2.5,17.91,17.91,0,0,1,2.54-.53c.59,0,1.19.08,1.78.08s1.91-.15,1.91-.62a7.06,7.06,0,0,1-1.27-3.39A2.83,2.83,0,0,1,178.92,42.22Z"/>
  <line class="cls-3" x1="39" y1="8.5" x2="71" y2="8.5"/>
</svg>
