<svg xmlns="http://www.w3.org/2000/svg" xmlns:xlink="http://www.w3.org/1999/xlink" viewBox="0 0 512 512">
  <defs>
    <style>.cls-1,.cls-11,.cls-13,.cls-15,.cls-6,.cls-7{fill:none;}.cls-2{isolation:isolate;}.cls-3,.cls-5{fill:#fff;}.cls-10,.cls-11,.cls-12,.cls-13,.cls-14,.cls-15,.cls-16,.cls-3,.cls-6,.cls-9{stroke:#828282;}.cls-11,.cls-16,.cls-3,.cls-6,.cls-9{stroke-linecap:round;}.cls-10,.cls-11,.cls-13,.cls-16,.cls-3,.cls-6,.cls-7{stroke-miterlimit:10;}.cls-12,.cls-15,.cls-16,.cls-3,.cls-6,.cls-9{stroke-width:1.8px;}.cls-12,.cls-16,.cls-4,.cls-9{fill:#e7e7e7;}.cls-4{opacity:0.3;}.cls-7{stroke:#efefef;stroke-width:1.5px;}.cls-8{clip-path:url(#clip-path);}.cls-12,.cls-14,.cls-15,.cls-9{stroke-linejoin:round;}.cls-10,.cls-17{fill:#efefef;}.cls-10,.cls-11,.cls-13,.cls-14{stroke-width:2px;}.cls-11{stroke-dasharray:2.88 4.8;}.cls-13{stroke-dasharray:6 4;}.cls-14{fill:url(#linear-gradient);}.cls-17{mix-blend-mode:multiply;}</style>
    <clipPath id="clip-path">
      <polygon class="cls-1" points="282.22 437.91 242.92 370 424.05 362.12 487.15 420.96 282.22 437.91"/>
    </clipPath>
    <linearGradient id="linear-gradient" x1="399.45" y1="393.11" x2="455.33" y2="393.11" gradientUnits="userSpaceOnUse">
      <stop offset="0" stop-color="#fff" stop-opacity="0.4"/>
      <stop offset="1" stop-color="#fff" stop-opacity="0.8"/>
    </linearGradient>
  </defs>
  <title>Artboard 1</title>
  <g class="cls-2">
    <g id="Layer_1" data-name="Layer 1">
      <polygon class="cls-3" points="351.25 464.92 136.4 454.88 188.55 381.23 351.38 388.19 351.25 464.92"/>
      <polygon class="cls-4" points="148.75 448.56 192.7 387.43 343.38 393.78 343.27 457.52 148.75 448.56"/>
      <path class="cls-5" d="M322.29,435.95c-3.17,1.23-4,.58-6.23,2.4a6.66,6.66,0,0,1-3.58,1.12c-2.41,0-4.65-.8-7.81-.8-7.3,0-1.15,4-8.09,8.21a5,5,0,0,1-1.87.8c-2.64.46-4,1.58-4,6.42,0,.34,0,.67,0,1l52.49,2.42,0-27.41A58.73,58.73,0,0,0,322.29,435.95Z"/>
      <path class="cls-6" d="M343.32,430.11a58.73,58.73,0,0,0-21,5.84c-3.17,1.23-4,.58-6.23,2.4a6.66,6.66,0,0,1-3.58,1.12c-2.41,0-4.65-.8-7.81-.8-7.3,0-1.15,4-8.09,8.21a5,5,0,0,1-1.87.8c-2.64.46-4,1.58-4,6.42,0,.34,0,.67,0,1"/>
      <path class="cls-5" d="M210.23,404.76c-3.17-1.58-5.45-4.93-8.91-4.93-3.22,0-6.5,3.16-6.5,7.8,0,2.25,1.24,5,1.24,7.27,0,4.6-10,7.22-11,7.22a62.15,62.15,0,0,0-13.92-4.69l-22.39,31.14,82.66,3.81c-9-6.07-17.19-12.34-17.19-15.94,0-2.56,4.69-7.43,8.88-7.43,2.28,0,4.46,3.84,7.51,3.84,6,0,3.57-6.22,16-6.95a1.27,1.27,0,0,0,.65-1.13C247.23,420.53,238.72,417.71,210.23,404.76Z"/>
      <path class="cls-6" d="M231.42,452.37c-9-6.07-17.19-12.34-17.19-15.94,0-2.56,4.69-7.43,8.88-7.43,2.28,0,4.46,3.84,7.51,3.84,6,0,3.57-6.22,16-6.95a1.27,1.27,0,0,0,.65-1.13c0-4.23-8.51-7-37-20-3.17-1.58-5.45-4.93-8.91-4.93-3.22,0-6.5,3.16-6.5,7.8,0,2.25,1.24,5,1.24,7.27,0,4.6-10,7.22-11,7.22a62.15,62.15,0,0,0-13.92-4.69"/>
      <path class="cls-7" d="M206.66,422.68a3.41,3.41,0,0,0-1.49-.32c-.51,0-9.85,5.78-16.94,5.78-5.68,0-13-3.06-20.76-5.63"/>
      <path class="cls-7" d="M204.12,451.11c-2.46-5.72-4.61-12-11.54-13.07-7.68-1.13-22-3.15-31.26-6.94"/>
      <path class="cls-7" d="M187.67,450.35c-11.3-11.78-22.6-6.85-31-12.82"/>
      <path class="cls-7" d="M162.88,449.21c1.75-6.09,9.08-18.94,11.93-24.17"/>
      <path class="cls-7" d="M174.74,449.76c5.35-7.79,14.08-11.38,22.23-16.12,8.25-4.9,9.32-15.46,16.88-15.46.53,0,1.11,0,1.74.1"/>
      <path class="cls-7" d="M203.35,408.6c6.37,2.43,10.49,7.72,15,12.88,1.94,2.58,6.19.76,11.86,3.6a2.44,2.44,0,0,0,1.1.27c1.58,0,2.86-1.68,4.22-2.42"/>
      <path class="cls-7" d="M186.38,450.29c5.13-6.73,13.51-6.22,15.45-8.16a21.1,21.1,0,0,0,2.57-3.69,2.5,2.5,0,0,1,1.94-1.41c1,0,3,4.45,3.52,5.35a32.34,32.34,0,0,0,5.9,9.26"/>
      <path class="cls-7" d="M303.33,455.68c2.56-3,5.48-5.42,9.52-5.42,1.18,0,2.4.12,3.62.12,8.39,0,2.93-4.66,21.13-7.46q2.87-.33,5.69-.6"/>
      <path class="cls-7" d="M322.06,456.54c1-2.24,3.14-5.14,6.39-5.14l1.73,0c4.25,0,6.36-4.21,13.11-5.86"/>
      <path class="cls-7" d="M331.76,457c-1.78-2.78-3.72-7.17-7.08-10.22"/>
      <path class="cls-7" d="M312.34,456.09a57.66,57.66,0,0,1-1.14-5.7"/>
      <polygon class="cls-3" points="276.36 443.45 502.36 425.87 428.85 358.23 235.91 366.98 276.36 443.45"/>
      <polygon class="cls-4" points="282.22 437.91 242.92 370 424.05 362.12 487.15 420.96 282.22 437.91"/>
      <g class="cls-8">
        <path class="cls-3" d="M307.27,425.74c1.18-9.21-2.71-5.11,3.7-11.65.54-.55.9-1.11.16-1.81-1.12-1-5.93-2.38-8-4.28-5.92-5.49,24.69-12.16,27.14-12.31,7.54-.46.69-8.3,14.87-13.84,1.68-.58,7.56-.22,5.65-2.51-.76-.91-4.07-2.58-6.14-5a3.73,3.73,0,0,1-1.14-3.12c.38-1.66,1.29-2.68-1-5.51a24.7,24.7,0,0,0-4.08-3.65.71.71,0,0,1-.11-.72.08.08,0,0,0,0-.08c-.1-.12-.54-.12-.79-.17l-106.7,4.34L277,441.78l67.65-5.72a27,27,0,0,1-4.49-.44c-10.14-2.25-26.25-3-31.83-7.91C307.5,427,307.2,426.32,307.27,425.74ZM388.51,411l1-.08,2.26-.15c17-1.22,5.17-11.22,17.07-12l2.15-.12c6.17-.4,5.46-2.83,8-3.77a18.91,18.91,0,0,1,4.87-1c.12,0,3.16-.11,4.92-.22,5.82-.37,10.88-1.3,12.43-4.94,1.08-2.49,10.45-1.15,10.52-3.17a5.75,5.75,0,0,0,1.57-2.85l42.3,40.49L390.9,432.14a30.55,30.55,0,0,1-3.07-1.06c-7.06-1.34,2-2.41.33-4.35-2.08-2.48-11.21-2.5-14-5.66S376.76,412.1,388.51,411Z"/>
        <path class="cls-7" d="M311.8,435.57s-8.93-2.17-14.25-8.77c-1.56-2.59,3.26-5.56,4.14-6.47s-3.15-3.8-1.08-5c2.25-1.35,1.41-4-3.13-7-3.89-2.63-.68-4.66.19-5.42s8-4.13,18.13-7.3,11.08-2.66,12.26-3.94,3.57-6.19,8.87-8.65,10.2-3.23,9.3-4.12-5-3.45-5.58-5.65l-.95-3.76c-.17-.2-.19-.36-.36-.56s-.29-.37-.44-.56c-.39-.46-1.06-1-1.35-1.31a3.79,3.79,0,0,1-.59-1.07"/>
        <path class="cls-7" d="M253.95,369.27s17.66,5,29.93,5.4c12,.34,17.46-1.66,20.53-3.33,3.82-2.08,4.79-4.46,4.79-4.46"/>
        <path class="cls-7" d="M283,374.51l-1.51,3s2.12.67,8.69,1.06,13-.64,14.79-.73,37.82,2.81,37.82,2.81"/>
        <path class="cls-7" d="M341.19,374.26s-33.7-2.7-36.79-2.92"/>
        <path class="cls-7" d="M246.52,376.43s15.62,2.31,23,2.64a30.88,30.88,0,0,0,11.93-1.54"/>
        <line class="cls-7" x1="332.17" y1="386.36" x2="249.11" y2="380.89"/>
        <path class="cls-7" d="M327.33,392.17s-32.9-2.08-35.91-2.24l-38.36-2.13"/>
        <path class="cls-7" d="M256,392.67s5.4.25,9,.72,7.81,2.39,14.11,2.76l29.92,1.7"/>
        <path class="cls-7" d="M261.91,402.89c17.77-1.17,25.7-2.69,29.19-6.06l13.86-19,12.71-5.49,2.6-6"/>
        <path class="cls-7" d="M257.81,397.57l1-.1a41.68,41.68,0,0,0,6.43-1.1c1.64-.61,4.55-1.89,4.55-1.89"/>
        <line class="cls-7" x1="273.44" y1="395.39" x2="290.17" y2="378.6"/>
        <path class="cls-7" d="M291.1,396.83l22.18-5.54,3.26-6c.88-1.63,2.91-4.92,6.33-6.23a54.48,54.48,0,0,0,9.47-5.56c.56-1.6.42-7.7.42-7.7"/>
        <path class="cls-7" d="M301.72,412.21s-10.71-.83-17-1.48c-5.3-.54-14.36,1-17.69,1.66"/>
        <path class="cls-7" d="M275.47,426.19s5.78-2.47,5.78-6.42-9.83-8.17-9.83-8.17"/>
        <path class="cls-7" d="M298.48,428.07s-13.34-.67-18.54,5.81l-.54.67"/>
        <path class="cls-7" d="M465.64,400.9c-15.52,6.24-51.57,11.9-55.81,12.43s-18.13,1.55-24,4.18,5.87,6.26,8.09,7.8-.62,3.51-.62,3.51"/>
        <path class="cls-7" d="M472,406.83,449.65,391.2l-6.25,3c-2.11,1-10.58,2.14-15.4,2.51a1.39,1.39,0,0,0-1.11.49c-.16.27,0,.59.31.87l31.68,25.22"/>
        <path class="cls-7" d="M459.82,395.48l-3,1c-7.54,2.55-24.12,6-24.12,6l-5.17,3.77-12.85,1.8,7.78,18.36"/>
        <line class="cls-7" x1="445.83" y1="424.46" x2="427.54" y2="406.29"/>
        <path class="cls-7" d="M453.79,389.82a16.67,16.67,0,0,0-4.14,1.38"/>
        <path class="cls-7" d="M468.85,422.61l-7.83-6,3.54-3.9s-9.85-6.68-11.48-7.87-13.95-9.52-13.95-9.52"/>
        <path class="cls-7" d="M459.49,409.36l-14.23,3.15c-5.71,1.14-27.09,3.78-27.09,3.78-4.92.45-15.21,1.71-19.48,3s-2.41,4.52-2.41,4.52l-1.71,2.3c5.95-.14,10.33-.34,14.21-.66a13.47,13.47,0,0,0,.7-3.16c14.31-.81,36.1-2.84,51.54-5.6-1.29-1-8.64-5.71-8.64-5.71L439.62,401"/>
        <path class="cls-7" d="M452.45,424a6.08,6.08,0,0,1,3.56-2.9,44.14,44.14,0,0,1,9.43-1.05s8.24-.22,9.92-1.74c1.33-1.19-.6-3.05-.62-4.37,0-1.53,2.61-2.05,2.61-2.05"/>
        <line class="cls-7" x1="430.99" y1="420.56" x2="434.26" y2="425.47"/>
      </g>
      <path class="cls-9" d="M383.07,395.67c-.8-.93-3.77-1.54-6.65-1.36s-4.65,1.08-3.93,2,3.75,1.6,6.72,1.41S383.89,396.63,383.07,395.67Z"/>
      <path class="cls-10" d="M342.9,418.86c-1.3-1.65-6.37-2.68-11.36-2.32s-8.16,2-7,3.69,6.38,2.78,11.51,2.39S344.22,420.53,342.9,418.86Z"/>
      <path class="cls-11" d="M304.81,382.36c-2.37-3.37-13.36-5.66-24.66-5.11s-18.88,3.8-16.48,7.25,13.73,5.73,25.14,5.09S307.19,385.73,304.81,382.36Z"/>
      <path class="cls-9" d="M291.33,383.14c-.83-1.12-4.5-1.86-8.21-1.67s-6.17,1.25-5.43,2.38,4.48,1.92,8.3,1.72S292.18,384.27,291.33,383.14Z"/>
      <path class="cls-12" d="M441.06,424.78a3.23,3.23,0,0,0-.57-.81c-2.6-2.79-11.07-4.55-19-3.92s-12.5,3.45-9.94,6.3a5.62,5.62,0,0,0,.92.8"/>
      <path class="cls-13" d="M344.71,414.76c8.37-4.7,18.85-10.23,27.39-15l.78-.44"/>
      <polygon class="cls-14" points="399.44 388.68 421.09 408.78 455.33 407 423.64 377.44 419.64 390.92 399.44 388.68"/>
      <polygon class="cls-1" points="491.55 420.94 278.01 440.76 241.9 369.89 424.5 362.19 491.55 420.94"/>
      <line class="cls-15" x1="486.94" y1="312" x2="29.74" y2="312"/>
      <path class="cls-5" d="M246.78,406.5a5.5,5.5,0,0,1-1.52-.21l-62.85-18.1,5.65-8,55,2.35-8.73-16.5,18-.82,0,35.77a5.5,5.5,0,0,1-5.5,5.49Z"/>
      <path id="_Path_" data-name="&lt;Path&gt;" class="cls-3" d="M280.92,217.55l19.31-17.33.13-107.54a7.2,7.2,0,0,0-7.19-7.21L84,85.22,83.67,354l189.51.23a7.2,7.2,0,0,0,7.21-7.17Z"/>
      <polygon id="_Path_2" data-name="&lt;Path&gt;" class="cls-16" points="246.78 401 83.67 354.04 84 85.22 247.11 132.18 246.78 401"/>
      <polygon class="cls-3" points="222.5 148.47 198.79 141.64 198.72 200.85 222.43 207.67 222.5 148.47"/>
      <line class="cls-15" x1="366.61" y1="325.07" x2="331.32" y2="325.07"/>
      <path class="cls-17" d="M83.67,354l-68.92,30.6a2.26,2.26,0,0,0,.8,4.32l231.23,12"/>
    </g>
  </g>
</svg>
